[gd_scene load_steps=5 format=2]

[ext_resource path="res://src/ui/menus/ship_menu/ShipMenu.gd" type="Script" id=1]
[ext_resource path="res://src/ui/panels/ship_panel/ShipPanel.tscn" type="PackedScene" id=2]
[ext_resource path="res://src/ui/panels/inventory_panel/InventoryPanel.tscn" type="PackedScene" id=3]
[ext_resource path="res://src/ui/panels/build_panel/BuildingPanel.tscn" type="PackedScene" id=4]

[node name="ShipMenu" type="Control"]
anchor_right = 1.0
anchor_bottom = 1.0
script = ExtResource( 1 )

[node name="HBoxContainer" type="HBoxContainer" parent="."]
anchor_right = 1.0
anchor_bottom = 1.0
margin_left = 50.0
margin_top = 50.0
margin_right = -50.0
margin_bottom = -50.0
custom_constants/separation = 50

[node name="VBoxContainer" type="VBoxContainer" parent="HBoxContainer"]
margin_right = 437.0
margin_bottom = 500.0
size_flags_horizontal = 3
size_flags_vertical = 3
custom_constants/separation = 50

[node name="InventoryPanel" parent="HBoxContainer/VBoxContainer" instance=ExtResource( 3 )]
anchor_right = 0.0
anchor_bottom = 0.0
margin_right = 437.0
margin_bottom = 300.0
rect_min_size = Vector2( 0, 300 )
size_flags_horizontal = 3
size_flags_vertical = 2

[node name="BuildingPanel" parent="HBoxContainer/VBoxContainer" instance=ExtResource( 4 )]
anchor_right = 0.0
anchor_bottom = 0.0
margin_top = 350.0
margin_right = 437.0
margin_bottom = 500.0
rect_min_size = Vector2( 0, 100 )
size_flags_horizontal = 3
size_flags_vertical = 3

[node name="ShipPanel" parent="HBoxContainer" instance=ExtResource( 2 )]
margin_left = 487.0
margin_right = 924.0

[connection signal="selected" from="HBoxContainer/VBoxContainer/InventoryPanel" to="." method="_on_InventoryPanel_selected"]
[connection signal="selected" from="HBoxContainer/VBoxContainer/BuildingPanel" to="." method="_on_BuildingPanel_selected"]
[connection signal="cancel" from="HBoxContainer/ShipPanel" to="." method="_on_ShipPanel_cancel"]
[connection signal="confirm" from="HBoxContainer/ShipPanel" to="." method="_on_ShipPanel_confirm"]
[connection signal="selected" from="HBoxContainer/ShipPanel" to="." method="_on_ShipPanel_selected"]
