[gd_scene load_steps=2 format=2]

[ext_resource path="res://src/ui/panels/blender_panel/BlenderPanel.gd" type="Script" id=1]

[node name="BlenderPanel" type="Control"]
margin_left = 487.0
margin_right = 924.0
margin_bottom = 500.0
size_flags_horizontal = 3
size_flags_vertical = 3
script = ExtResource( 1 )

[node name="Panel" type="Panel" parent="."]
anchor_right = 1.0
anchor_bottom = 1.0

[node name="VBoxContainer" type="VBoxContainer" parent="Panel"]
anchor_right = 1.0
anchor_bottom = 1.0
margin_left = 20.0
margin_top = 20.0
margin_right = -20.0
margin_bottom = -20.0
alignment = 2

[node name="CompoundList" type="VBoxContainer" parent="Panel/VBoxContainer"]
margin_right = 397.0
margin_bottom = 406.0
size_flags_horizontal = 3
size_flags_vertical = 3
custom_constants/separation = 20

[node name="ButtonList" type="HBoxContainer" parent="Panel/VBoxContainer"]
margin_top = 410.0
margin_right = 397.0
margin_bottom = 460.0
rect_min_size = Vector2( 0, 50 )
size_flags_horizontal = 3
custom_constants/separation = 20

[node name="CancelButton" type="Button" parent="Panel/VBoxContainer/ButtonList"]
margin_right = 188.0
margin_bottom = 50.0
size_flags_horizontal = 3
size_flags_vertical = 3
text = "Cancel"

[node name="BlenderButton" type="Button" parent="Panel/VBoxContainer/ButtonList"]
margin_left = 208.0
margin_right = 397.0
margin_bottom = 50.0
size_flags_horizontal = 3
size_flags_vertical = 3
disabled = true
text = "Blender"

[connection signal="pressed" from="Panel/VBoxContainer/ButtonList/CancelButton" to="." method="_on_CancelButton_pressed"]
[connection signal="pressed" from="Panel/VBoxContainer/ButtonList/BlenderButton" to="." method="_on_BlenderButton_pressed"]
