[gd_scene load_steps=2 format=2]

[ext_resource path="res://src/ui/layers/game_over_layer/GameOverLayer.gd" type="Script" id=1]

[node name="GameOverLayer" type="Control"]
anchor_right = 1.0
anchor_bottom = 1.0
script = ExtResource( 1 )

[node name="Label" type="Label" parent="."]
anchor_right = 1.0
anchor_bottom = 1.0
margin_left = 300.0
margin_top = 128.0
margin_right = -300.0
margin_bottom = -209.0
text = "Game Over

Your soul and your body was harvest by the aliens to turn fertilizer for the plants.

Please, try again."
align = 1
valign = 1
autowrap = true

[node name="Buttons" type="VBoxContainer" parent="."]
anchor_left = 0.5
anchor_top = 0.5
anchor_right = 0.5
anchor_bottom = 0.5
margin_left = -136.5
margin_top = 104.0
margin_right = 136.5
margin_bottom = 264.0
custom_constants/separation = 15
alignment = 1

[node name="ButtonRestart" type="Button" parent="Buttons"]
margin_top = 22.0
margin_right = 273.0
margin_bottom = 72.0
rect_min_size = Vector2( 0, 50 )
text = "Restart"

[node name="ButtonMainMenu" type="Button" parent="Buttons"]
margin_top = 87.0
margin_right = 273.0
margin_bottom = 137.0
rect_min_size = Vector2( 0, 50 )
text = "Back to the Main Menu"

[connection signal="pressed" from="Buttons/ButtonRestart" to="." method="_on_ButtonRestart_pressed"]
[connection signal="pressed" from="Buttons/ButtonMainMenu" to="." method="_on_ButtonMainMenu_pressed"]
