[gd_scene load_steps=4 format=2]

[ext_resource path="res://src/ui/panels/inventory_panel/InventoryPanel.tscn" type="PackedScene" id=1]
[ext_resource path="res://src/ui/menus/analyser_menu/AnalyserMenu.gd" type="Script" id=2]
[ext_resource path="res://src/ui/panels/analyser_panel/AnalyserPanel.tscn" type="PackedScene" id=3]

[node name="AnalyserMenu" type="Control"]
anchor_right = 1.0
anchor_bottom = 1.0
script = ExtResource( 2 )

[node name="HBoxContainer" type="HBoxContainer" parent="."]
anchor_right = 1.0
anchor_bottom = 1.0
margin_left = 50.0
margin_top = 50.0
margin_right = -50.0
margin_bottom = -50.0
custom_constants/separation = 50

[node name="InventoryPanel" parent="HBoxContainer" instance=ExtResource( 1 )]
anchor_right = 0.0
anchor_bottom = 0.0
margin_top = 100.0
margin_right = 437.0
margin_bottom = 400.0
rect_min_size = Vector2( 0, 300 )
size_flags_horizontal = 3
size_flags_vertical = 6

[node name="AnalyserPanel" parent="HBoxContainer" instance=ExtResource( 3 )]

[connection signal="selected" from="HBoxContainer/InventoryPanel" to="." method="_on_InventoryPanel_selected"]
[connection signal="cancel" from="HBoxContainer/AnalyserPanel" to="." method="_on_AnalyserPanel_cancel"]
[connection signal="confirm" from="HBoxContainer/AnalyserPanel" to="." method="_on_AnalyserPanel_confirm"]
